<svg xmlns="http://www.w3.org/2000/svg" width="120" height="34" viewBox="0 0 120 34">
    <defs>
        <linearGradient id="prefix__a" x1="61.183%" x2="34.651%" y1="64.909%" y2="12.248%">
            <stop offset="0%" stop-color="#8F1596"/>
            <stop offset="100%" stop-color="#630868"/>
        </linearGradient>
        <linearGradient id="prefix__b" x1="4.029%" x2="80.486%" y1="50%" y2="50%">
            <stop offset="0%" stop-color="#0093BA"/>
            <stop offset="100%" stop-color="#13266C"/>
        </linearGradient>
    </defs>
    <g fill="none" fill-rule="evenodd">
        <path fill="url(#prefix__a)" d="M12.579 24.08l12.578 9.532H0l12.579-9.532zM1.006 3.512L18.868 16.68 1.076 29.85l-.07-26.338zM25.157 0L12.58 9.532 0 0h25.157z"/>
        <path fill="url(#prefix__b)" fill-rule="nonzero" d="M35.475 22.804c2.653 0 4.402-.995 5.97-2.353l-1.749-1.81c-1.146.875-2.231 1.509-4.191 1.509-2.202 0-3.619-1.6-3.71-3.62h9.861c0-4.073-2.533-7-6.302-7-3.77 0-6.423 2.836-6.423 6.517 0 4.223 2.865 6.757 6.544 6.757zm3.075-8.447h-6.634c.332-1.387 1.689-2.262 3.317-2.262 1.599 0 2.865.814 3.317 2.262zm9.982 8.447l6.061-12.911h-3.046l-2.744 6.033c-.12.242-.21.634-.21.634s-.091-.362-.212-.604l-2.714-6.063h-3.166l6.03 12.911zm13.51 0c2.653 0 4.402-.995 5.97-2.353l-1.749-1.81c-1.146.875-2.231 1.509-4.191 1.509-2.202 0-3.62-1.6-3.71-3.62h9.861c0-4.073-2.533-7-6.302-7-3.77 0-6.423 2.836-6.423 6.517 0 4.223 2.864 6.757 6.543 6.757zm3.075-8.447h-6.634c.332-1.387 1.689-2.262 3.317-2.262 1.598 0 2.865.814 3.317 2.262zm8.775 8.085v-6.757c0-1.539.784-3.5 2.926-3.5 1.628 0 2.382 1.086 2.382 2.625v7.632h2.865v-8.175c0-3.107-1.93-4.736-4.614-4.736-1.448 0-2.775.663-3.559 1.87V9.893h-2.864v12.55h2.864zm16.767.181c.12 0 .482-.03.482-.03v-2.715h-.006c-.048.005-.34.028-.487.03h-.02c-1.296 0-1.778-.301-1.778-1.629v-5.732h2.261V9.893H88.85V6.95l-2.865-1.433v4.375h-1.72v2.654h1.72v5.823c0 3.68 1.81 4.253 4.674 4.253zm7.267.181c1.508 0 2.775-.392 3.92-1.267v.905h2.865v-9.17c0-2.716-2.14-3.741-5.639-3.741-1.387 0-3.347.271-4.523.965l.995 2.142c1.086-.483 2.292-.694 3.86-.694 1.87 0 2.503.543 2.503 2.051h-1.87c-3.86 0-6.815 1.63-6.815 4.586 0 2.323 1.538 4.223 4.704 4.223zm.784-2.534c-1.206 0-2.563-.482-2.563-1.69 0-1.598 1.629-2.262 4.885-2.262h.814v2.957c-1.145.784-1.87.995-3.136.995zm12.183 7.572v-6.757c.784 1.086 2.08 1.72 3.558 1.72 3.257 0 5.549-2.836 5.549-6.547 0-3.65-2.292-6.727-5.549-6.727-1.718 0-2.925.874-3.558 1.78V9.893h-2.865v16.441l2.865 1.508zm2.985-7.692c-1.99 0-3.226-1.931-3.226-3.922 0-2.112 1.266-4.043 3.257-4.043 2.02 0 3.166 1.84 3.166 3.952 0 2.082-1.146 4.013-3.197 4.013z"/>
    </g>
</svg>
