<?xml version="1.0"?>
<svg xmlns="http://www.w3.org/2000/svg" viewBox="0 0 64 64" width="512" height="512">
  <g id="handwash_&#xB7;_coronavirus_&#xB7;_hygiene_&#xB7;_clean&#xB7;_covid19" data-name="handwash &#xB7; coronavirus &#xB7; hygiene &#xB7; clean&#xB7; covid19" fill="#fff">
 
    <path d="M43.51,46.43l1.31-1.97A6.973,6.973,0,0,0,46,40.58V18a2,2,0,0,0-4,0v7a1,1,0,0,1-2,0V10a2,2,0,0,0-4,0V25a1,1,0,0,1-2,0V6a2,2,0,0,0-4,0V25a1,1,0,0,1-2,0V10a2,2,0,0,0-4,0V32.06A8.022,8.022,0,0,1,31,40v1a1,1,0,0,1-2,0V40a6,6,0,0,0-6-6,1,1,0,0,1-1-1V27a3.009,3.009,0,0,0-3-3H18V40.1a7.02,7.02,0,0,0,1.62,4.48l1.29,1.55A9.03,9.03,0,0,1,23,51.9V61H42V51.42A8.952,8.952,0,0,1,43.51,46.43Z"/>
  </g>
</svg>
