<?xml version="1.0"?>
<svg xmlns="http://www.w3.org/2000/svg" viewBox="0 0 64 64" width="512" height="512" fill="#fff">
  <g id="lock-shield-protect-protection-security">
    <path d="M46,48.781v2.562a3.02,3.02,0,0,0,.878,2.121L49,55.586l2.122-2.122A3.02,3.02,0,0,0,52,51.343V48.781l-3-.75Z"/>
    <path d="M40,42V39a7.008,7.008,0,0,1,7-7h4a6.282,6.282,0,0,1,.75.04A23.277,23.277,0,0,0,52,28.82V11.73L28,4.05,4,11.73V28.82a22.922,22.922,0,0,0,8.2,17.6L28,59.69l8-6.72V45a3.009,3.009,0,0,1,3-3ZM26.707,36.707a1,1,0,0,1-1.414,0l-7.071-7.071,1.414-1.414L26,34.586,38.021,22.565l1.414,1.414Z"/>
    <path d="M47,38a1,1,0,0,0-1,1v3h6V39a1,1,0,0,0-1-1Z"/>
    <path d="M47,34a5,5,0,0,0-5,5v3h2V39a3.009,3.009,0,0,1,3-3h4a3.009,3.009,0,0,1,3,3v3h2V39a5,5,0,0,0-5-5Z"/>
    <path d="M59,44H39a1,1,0,0,0-1,1V59a1,1,0,0,0,1,1H59a1,1,0,0,0,1-1V45A1,1,0,0,0,59,44Zm-5,7.343a4.966,4.966,0,0,1-1.464,3.535l-2.829,2.829a1,1,0,0,1-1.414,0l-2.829-2.829A4.966,4.966,0,0,1,44,51.343V48a1,1,0,0,1,.757-.97l4-1a1,1,0,0,1,.486,0l4,1A1,1,0,0,1,54,48Z"/>
  </g>
</svg>
