<svg height="597pt" viewBox="-89 -19 597 597.33227" width="597pt" xmlns="http://www.w3.org/2000/svg" fill="#606060">
  <path d="m15.5 420h159.996094v140h-159.996094zm0 0"/>
  <path d="m175.496094 171.222656c.195312-5.164062-3.230469-9.773437-8.242188-11.066406-2.914062-.523438-5.90625.277344-8.175781 2.175781-2.273437 1.898438-3.585937 4.710938-3.582031 7.671875v50h-20v-88.78125c.195312-5.164062-3.230469-9.773437-8.242188-11.066406-2.914062-.523438-5.90625.277344-8.175781 2.175781-2.273437 1.898438-3.585937 4.710938-3.582031 7.671875v80h-20v-130c-.007813-2.945312-1.316406-5.738281-3.574219-7.625-2.253906-1.941406-5.261719-2.753906-8.1875-2.222656-5.003906 1.292969-8.4375 5.902344-8.234375 11.070312v128.777344h-20v-90c-.011719-2.945312-1.320312-5.738281-3.574219-7.625-2.253906-1.941406-5.265625-2.753906-8.191406-2.222656-5.003906 1.292969-8.4375 5.902344-8.234375 11.066406v148.78125h-20v-60c0-5.523437-4.480469-10-10-10h-10v93.429688c.019531 7.949218 3.171875 15.570312 8.777344 21.210937l18.292968 18.285157c1.875 1.875 2.929688 4.421874 2.929688 7.070312v60h139.996094v-30c-.003906-1.546875.359375-3.078125 1.050781-4.464844l5.777344-11.5625c2.082031-4.160156 3.167969-8.757812 3.171875-13.410156zm0 0"/>
  <path d="m415.496094 130.003906h-10c-5.523438 0-10 4.476563-10 10v60h-20v-148.777344c.195312-5.167968-3.234375-9.777343-8.242188-11.070312-2.917968-.523438-5.910156.277344-8.179687 2.175781-2.269531 1.902344-3.585938 4.714844-3.578125 7.671875v90h-20v-128.777344c.195312-5.167968-3.234375-9.777343-8.242188-11.070312-2.914062-.523438-5.910156.277344-8.179687 2.179688-2.269531 1.898437-3.582031 4.710937-3.578125 7.667968v130h-20v-80c0-2.957031-1.308594-5.769531-3.578125-7.671875-2.273438-1.898437-5.269531-2.699219-8.183594-2.175781-5.007813 1.292969-8.4375 5.902344-8.238281 11.070312v88.777344h-20v-50c0-2.957031-1.308594-5.769531-3.578125-7.671875-2.269531-1.898437-5.269531-2.699219-8.183594-2.175781-5.003906 1.292969-8.4375 5.902344-8.238281 11.070312v169.335938c0 4.65625 1.085937 9.25 3.167968 13.410156l5.78125 11.5625c.691407 1.386719 1.050782 2.917969 1.050782 4.464844v30h140v-59.996094c0-2.652344 1.054687-5.195312 2.929687-7.070312l18.285157-18.289063c5.605468-5.636719 8.757812-13.261719 8.785156-21.210937zm0 0"/>
  <path d="m235.496094 350h160v210h-160zm0 0"/>
</svg>
