<?xml version="1.0"?>
<svg xmlns="http://www.w3.org/2000/svg" viewBox="0 0 64 64" width="512" height="512" fill="#fff">
  <g id="online_learning-conferance-meeting-video_conferance-people" data-name="online learning-conferance-meeting-video conferance-people">
    <circle cx="22" cy="31" r="1"/>
    <path d="M4,43a3.009,3.009,0,0,0,3,3H57a3.009,3.009,0,0,0,3-3V40H4Zm50-1h2v2H54Zm-4,0h2v2H50Z"/>
    <rect x="28" y="48" width="8" height="6"/>
    <path d="M44,56H20a1,1,0,0,0-1,1v3H45V57A1,1,0,0,0,44,56Z"/>
    <path d="M10,37a4.949,4.949,0,0,1,1.14-3.14A2.99,2.99,0,1,1,13,28.18V28a4,4,0,0,1,8,0v.18a2.99,2.99,0,1,1,1.86,5.68A4.949,4.949,0,0,1,24,37v1h7V22H4V38h6ZM27,24h2v2H27Z"/>
    <path d="M12,19v1H22V19a3.009,3.009,0,0,0-3-3H15A3.009,3.009,0,0,0,12,19Z"/>
    <circle cx="12" cy="31" r="1"/>
    <path d="M19,30V28a2,2,0,0,0-4,0v2a2,2,0,0,0,4,0Z"/>
    <path d="M22,37a3.009,3.009,0,0,0-3-3H15a3.009,3.009,0,0,0-3,3v1H22Z"/>
    <path d="M10,19a5,5,0,0,1,3.67-4.8A3.965,3.965,0,0,1,13,12V10a4,4,0,0,1,8,0v2a3.965,3.965,0,0,1-.67,2.2A5,5,0,0,1,24,19v1h7V4H7A3.009,3.009,0,0,0,4,7V20h6ZM27,6h2V8H27Z"/>
    <path d="M57,4H33V20h7V19a5,5,0,0,1,3.67-4.8A3.965,3.965,0,0,1,43,12V10a4,4,0,0,1,8,0v2a3.965,3.965,0,0,1-.67,2.2A5,5,0,0,1,54,19v1h6V7A3.009,3.009,0,0,0,57,4Zm1,4H56V6h2Z"/>
    <path d="M49,12V10a2,2,0,0,0-4,0v2a2,2,0,0,0,4,0Z"/>
    <path d="M42,37v1H52V37a3.009,3.009,0,0,0-3-3H45A3.009,3.009,0,0,0,42,37Z"/>
    <path d="M42,19v1H52V19a3.009,3.009,0,0,0-3-3H45A3.009,3.009,0,0,0,42,19Z"/>
    <path d="M19,12V10a2,2,0,0,0-4,0v2a2,2,0,0,0,4,0Z"/>
    <path d="M49,30V28a2,2,0,0,0-4,0v2a2,2,0,0,0,4,0Z"/>
    <path d="M33,38h7V37a5,5,0,0,1,3.67-4.8A3.965,3.965,0,0,1,43,30V28a4,4,0,0,1,8,0v2a3.965,3.965,0,0,1-.67,2.2A5,5,0,0,1,54,37v1h6V22H33ZM56,24h2v2H56Z"/>
  </g>
</svg>
